{"photos":{"page":1,"pages":1214,"perpage":100,"total":12155,"photo":[{"id":"51913879019","owner":"192779777@N02","secret":"96f55dba09","server":"65535","farm":66,"title":"\u201cThe amount of sleep required by the average person is five minutes more.\u201d - Wilson Mizener","ispublic":1,"isfriend":0,"isfamily":0},{"id":"51913546046","owner":"189155915@N06","secret":"b022a9b293","server":"65535","farm":66,"title":"Black kitten","ispublic":1,"isfriend":0,"isfamily":0},{"id":"51913115236","owner":"148179219@N03","secret":"cdcd5c2c90","server":"65535","farm":66,"title":"poedie 3 (91)","ispublic":1,"isfriend":0,"isfamily":0},{"id":"51913344694","owner":"186395145@N06","secret":"db42d5e982","server":"65535","farm":66,"title":"Carla","ispublic":1,"isfriend":0,"isfamily":0},{"id":"51911873747","owner":"148323753@N06","secret":"dc6f57e9fb","server":"65535","farm":66,"title":"\ud83d\udc8c 1494 \ud83d\udc8c","ispublic":1,"isfriend":0,"isfamily":0},{"id":"51912829666","owner":"167009828@N03","secret":"2fb73343dd","server":"65535","farm":66,"title":"CK Darling (BW)","ispublic":1,"isfriend":0,"isfamily":0},{"id":"51911717197","owner":"152965570@N07","secret":"59a64edc4c","server":"65535","farm":66,"title":"ESTILO - \u0317\u0300 1280 \u0316\u0301-","ispublic":1,"isfriend":0,"isfamily":0},{"id":"51913053554","owner":"34588343@N05","secret":"19e1c313fd","server":"65535","farm":66,"title":"SEmotion Libelline Cat Back pack Wearable","ispublic":1,"isfriend":0,"isfamily":0},{"id":"51913143925","owner":"156433922@N02","secret":"66e740fac4","server":"65535","farm":66,"title":"LibraStyle 1172 [Lazy Dayz]","ispublic":1,"isfriend":0,"isfamily":0},{"id":"51912526309","owner":"89024276@N03","secret":"84cbff25ff","server":"65535","farm":66,"title":"Coco","ispublic":1,"isfriend":0,"isfamily":0},{"id":"51912526269","owner":"89024276@N03","secret":"8964f4c5f0","server":"65535","farm":66,"title":"Cleo","ispublic":1,"isfriend":0,"isfamily":0},{"id":"51912507219","owner":"35034352186@N01","secret":"b2ac00166f","server":"65535","farm":66,"title":"Lexi at the Tap","ispublic":1,"isfriend":0,"isfamily":0},{"id":"51912481819","owner":"193850097@N02","secret":"34eefa145e","server":"65535","farm":66,"title":"collage","ispublic":1,"isfriend":0,"isfamily":0},{"id":"51912775555","owner":"156984163@N04","secret":"4d555bbb74","server":"65535","farm":66,"title":"::Loa::Aura Skin","ispublic":1,"isfriend":0,"isfamily":0},{"id":"51911124302","owner":"189568154@N06","secret":"feb726af74","server":"65535","farm":66,"title":"Boo, You Whore\u2665","ispublic":1,"isfriend":0,"isfamily":0},{"id":"51912372769","owner":"19872565@N00","secret":"5d8fcb5530","server":"65535","farm":66,"title":"20210513_7537c","ispublic":1,"isfriend":0,"isfamily":0},{"id":"51911077757","owner":"137804205@N02","secret":"9f154b5ddc","server":"65535","farm":66,"title":"Short_Leash_Terms_of_Endearment_Signs_Vol_1_ad","ispublic":1,"isfriend":0,"isfamily":0},{"id":"51911071887","owner":"137804205@N02","secret":"1b00080872","server":"65535","farm":66,"title":".:Short Leash:. Charming Ball Gag","ispublic":1,"isfriend":0,"isfamily":0},{"id":"51911048302","owner":"193254541@N05","secret":"9fbb9bcaf2","server":"65535","farm":66,"title":"Kittens!","ispublic":1,"isfriend":0,"isfamily":0},{"id":"51910921892","owner":"195088032@N03","secret":"4be8dae72a","server":"65535","farm":66,"title":"Boulder Strong Tee shirt","ispublic":1,"isfriend":0,"isfamily":0},{"id":"51911821386","owner":"63189170@N04","secret":"72bd690d21","server":"65535","farm":66,"title":"Handmade cats bride and groom with initials base custom wedding cake topper, pets wedding cake decoration ideas","ispublic":1,"isfriend":0,"isfamily":0},{"id":"51911797516","owner":"63189170@N04","secret":"027dcea222","server":"65535","farm":66,"title":"handmade Japanese cat ,handmade Japanese decor, Japanese doll, lovely cat decor, miniature, handmade home decor, handmade art dolls","ispublic":1,"isfriend":0,"isfamily":0},{"id":"51911986854","owner":"193406588@N08","secret":"70d9b4a443","server":"65535","farm":66,"title":"Cardinal in flight. Photo by Mary Byzewski","ispublic":1,"isfriend":0,"isfamily":0},{"id":"51911746188","owner":"194854582@N02","secret":"b9f5821851","server":"65535","farm":66,"title":"Cats Are the Most Adorable Animals; cat, adorable, animals, adorable, cute, cat, animals, animal, kitty, cats, kitten, funny, pets, kawaii, pet, Essential T-Shirt by QuoteByDaniel","ispublic":1,"isfriend":0,"isfamily":0},{"id":"51911675228","owner":"37606977@N05","secret":"36377eb76e","server":"65535","farm":66,"title":"","ispublic":1,"isfriend":0,"isfamily":0},{"id":"51911510781","owner":"195128716@N04","secret":"379c4fcce1","server":"65535","farm":66,"title":"\u2764\ufe0f","ispublic":1,"isfriend":0,"isfamily":0},{"id":"51911724489","owner":"12329314@N05","secret":"11f9220da3","server":"65535","farm":66,"title":"Ah ! A new place for a nap!","ispublic":1,"isfriend":0,"isfamily":0},{"id":"51911139258","owner":"148179219@N03","secret":"324bac15bd","server":"65535","farm":66,"title":"poedie 2 (47)","ispublic":1,"isfriend":0,"isfamily":0},{"id":"51906206053","owner":"55747198@N00","secret":"e10ae462a2","server":"65535","farm":66,"title":"Who Says We can't All Be Friends?","ispublic":1,"isfriend":0,"isfamily":0},{"id":"51909926252","owner":"195088032@N03","secret":"5e33bd315d","server":"65535","farm":66,"title":"Make The Bee Satire Again Shirt","ispublic":1,"isfriend":0,"isfamily":0},{"id":"51911179439","owner":"146533748@N05","secret":"fbeb3cd936","server":"65535","farm":66,"title":"Wild Kitten \ud83d\udc08","ispublic":1,"isfriend":0,"isfamily":0},{"id":"51909901512","owner":"194854582@N02","secret":"2381779840","server":"65535","farm":66,"title":"All You Need Is Love and Cat; love cat, cat, love, cute, funny, cats, animal, kitten, kitty, animals, kawaii, cool, pet, happy, cat lover Essential T-Shirt by QuoteByDaniel","ispublic":1,"isfriend":0,"isfamily":0},{"id":"51910854021","owner":"138837019@N04","secret":"d55743acd4","server":"65535","farm":66,"title":"Pleasures","ispublic":1,"isfriend":0,"isfamily":0},{"id":"51910861701","owner":"195088032@N03","secret":"41245ac581","server":"65535","farm":66,"title":"I Stand With Ukraine Ukrainian Map Shirt","ispublic":1,"isfriend":0,"isfamily":0},{"id":"51910956063","owner":"195088032@N03","secret":"9c980a4e80","server":"65535","farm":66,"title":"St Patrick Girl One Lucky Housekeeper Shirt","ispublic":1,"isfriend":0,"isfamily":0},{"id":"51910769786","owner":"194506300@N06","secret":"592a524973","server":"65535","farm":66,"title":"DoivPB","ispublic":1,"isfriend":0,"isfamily":0},{"id":"51910749896","owner":"195088032@N03","secret":"0a930819f8","server":"65535","farm":66,"title":"LGB Donald Trump St Patrick Let\u2019s Go Brandon Shirt","ispublic":1,"isfriend":0,"isfamily":0},{"id":"51911024054","owner":"193406588@N08","secret":"df8666a504","server":"65535","farm":66,"title":"Blue Jay in flight. Photo b Mary Byzewski","ispublic":1,"isfriend":0,"isfamily":0},{"id":"51910693348","owner":"193116958@N08","secret":"9689cf7b8f","server":"65535","farm":66,"title":"Dropping it","ispublic":1,"isfriend":0,"isfamily":0},{"id":"51909256427","owner":"194751926@N03","secret":"802101cacd","server":"65535","farm":66,"title":"Better Late Than Never - Candy Kitten","ispublic":1,"isfriend":0,"isfamily":0},{"id":"51909238797","owner":"195113268@N04","secret":"2d1723dd31","server":"65535","farm":66,"title":"Laurel, mon amour.","ispublic":1,"isfriend":0,"isfamily":0},{"id":"51910291063","owner":"195113268@N04","secret":"24173d3e73","server":"65535","farm":66,"title":"Mon amour, iLLya.","ispublic":1,"isfriend":0,"isfamily":0},{"id":"51910259588","owner":"195113268@N04","secret":"bb1a7d2717","server":"65535","farm":66,"title":"Mon amour","ispublic":1,"isfriend":0,"isfamily":0},{"id":"51910186268","owner":"157959218@N06","secret":"63e0925900","server":"65535","farm":66,"title":"2022 Day 58 : Unlucky Fried Kitten","ispublic":1,"isfriend":0,"isfamily":0},{"id":"51910059396","owner":"34739556@N04","secret":"5a5dbbd896","server":"65535","farm":66,"title":"Sounds worse then it is. \ud83d\ude2e","ispublic":1,"isfriend":0,"isfamily":0},{"id":"51910058431","owner":"46837385@N03","secret":"c0d4e3bf61","server":"65535","farm":66,"title":"Bobcat Kitten Watching Me","ispublic":1,"isfriend":0,"isfamily":0},{"id":"51910525110","owner":"195107847@N02","secret":"ca9e43328e","server":"65535","farm":66,"title":"Baby \u2665Earth Kittens","ispublic":1,"isfriend":0,"isfamily":0},{"id":"51910000748","owner":"195107847@N02","secret":"4bee1476e1","server":"65535","farm":66,"title":"Rockin' Robin \u2665Earth Kitten","ispublic":1,"isfriend":0,"isfamily":0},{"id":"51909929143","owner":"59600996@N03","secret":"df3510d95b","server":"65535","farm":66,"title":"After lunch","ispublic":1,"isfriend":0,"isfamily":0},{"id":"51909825343","owner":"195088032@N03","secret":"b606e66ea4","server":"65535","farm":66,"title":"2021 Peace Love Nursing shirt","ispublic":1,"isfriend":0,"isfamily":0},{"id":"51909711791","owner":"195088032@N03","secret":"2561cab7d1","server":"65535","farm":66,"title":"East Lansing basketball fish swim all day shirt","ispublic":1,"isfriend":0,"isfamily":0},{"id":"51909779813","owner":"183006480@N08","secret":"3fee70c489","server":"65535","farm":66,"title":"[ \ud83d\udcf7 - 2258 ]","ispublic":1,"isfriend":0,"isfamily":0},{"id":"51909675036","owner":"195088032@N03","secret":"3ab0d7cab1","server":"65535","farm":66,"title":"Bernie sanders the mitten shirt","ispublic":1,"isfriend":0,"isfamily":0},{"id":"51910238720","owner":"193107266@N07","secret":"fa3ed72776","server":"65535","farm":66,"title":"adventure mountain t shirt professional shirt design","ispublic":1,"isfriend":0,"isfamily":0},{"id":"51909559026","owner":"63518012@N05","secret":"dd3edf84f5","server":"65535","farm":66,"title":"The first day of life","ispublic":1,"isfriend":0,"isfamily":0},{"id":"51910122855","owner":"195089312@N07","secret":"5360824410","server":"65535","farm":66,"title":"Gata con Luz en el Rostro","ispublic":1,"isfriend":0,"isfamily":0},{"id":"51909541916","owner":"195088032@N03","secret":"2b58d31670","server":"65535","farm":66,"title":"McDonald\u2019s love Patrick\u2019s day shirt","ispublic":1,"isfriend":0,"isfamily":0},{"id":"51909442528","owner":"39683033@N08","secret":"57a01cae18","server":"65535","farm":66,"title":"Mandy Monday: Sunny Girl","ispublic":1,"isfriend":0,"isfamily":0},{"id":"51909434948","owner":"195088032@N03","secret":"0005685223","server":"65535","farm":66,"title":"Alexandria Ocasio Cortez Watercolor Painting Art shirt","ispublic":1,"isfriend":0,"isfamily":0},{"id":"51909423178","owner":"195088032@N03","secret":"a48600eea1","server":"65535","farm":66,"title":"I love all the cat in the world shirt","ispublic":1,"isfriend":0,"isfamily":0},{"id":"51909313421","owner":"195088032@N03","secret":"12a47699eb","server":"65535","farm":66,"title":"People Are Asking Me Which Sign I Was Born Under A Warning Sign shirt","ispublic":1,"isfriend":0,"isfamily":0},{"id":"51909589929","owner":"84477621@N00","secret":"7928a622a0","server":"65535","farm":66,"title":"We all need hugs!","ispublic":1,"isfriend":0,"isfamily":0},{"id":"51909837200","owner":"195126972@N06","secret":"2a0d239d10","server":"65535","farm":66,"title":"Six Strings to Salvation","ispublic":1,"isfriend":0,"isfamily":0},{"id":"51909242588","owner":"148409953@N02","secret":"5e722d35ef","server":"65535","farm":66,"title":"HAZEL . KITTEN SOCKS @ BLANC","ispublic":1,"isfriend":0,"isfamily":0},{"id":"51909738660","owner":"39752983@N06","secret":"29fb41ba6e","server":"65535","farm":66,"title":"Morrison","ispublic":1,"isfriend":0,"isfamily":0},{"id":"51909202133","owner":"124717126@N06","secret":"bf68a2a6cd","server":"65535","farm":66,"title":"She's Only Happy in the Sun","ispublic":1,"isfriend":0,"isfamily":0},{"id":"51908054747","owner":"192779777@N02","secret":"97199911cb","server":"65535","farm":66,"title":"\u201cIt\u2019s not what you look at that matters, it\u2019s what you see.\u201d - Henry David Thoreau","ispublic":1,"isfriend":0,"isfamily":0},{"id":"51909096983","owner":"153237179@N02","secret":"5429642270","server":"65535","farm":66,"title":"LOST dsh siamese cat (kitten) in #mckenzie Towne since Feb 26. Call 587 223 2323 if sighted\/found. Pls rt, share, watch, help to find DIEGO! Photos from Cherylyn Hunter's postvpdescription by Photos from Cherylyn Hunter's post LOST dsh siamese cat (kitten","ispublic":1,"isfriend":0,"isfamily":0},{"id":"51909526770","owner":"117607682@N04","secret":"e1f86468f7","server":"65535","farm":66,"title":"- Kittens of all colors, for all loves.","ispublic":1,"isfriend":0,"isfamily":0},{"id":"51908975998","owner":"52762736@N06","secret":"fb4b501046","server":"65535","farm":66,"title":"Cape Spurfowl","ispublic":1,"isfriend":0,"isfamily":0},{"id":"51908985858","owner":"189946003@N07","secret":"fcac6b6530","server":"65535","farm":66,"title":"Card 1","ispublic":1,"isfriend":0,"isfamily":0},{"id":"51908894041","owner":"189946003@N07","secret":"da7ec5afa7","server":"65535","farm":66,"title":"Card 2","ispublic":1,"isfriend":0,"isfamily":0},{"id":"51907922232","owner":"189946003@N07","secret":"137d913bf1","server":"65535","farm":66,"title":"Card 3","ispublic":1,"isfriend":0,"isfamily":0},{"id":"51909212969","owner":"189946003@N07","secret":"40d5b0d829","server":"65535","farm":66,"title":"Card 3 close up","ispublic":1,"isfriend":0,"isfamily":0},{"id":"51908893906","owner":"189946003@N07","secret":"167d0d3bcb","server":"65535","farm":66,"title":"Card 4","ispublic":1,"isfriend":0,"isfamily":0},{"id":"51909520315","owner":"189946003@N07","secret":"349e107743","server":"65535","farm":66,"title":"Card 5","ispublic":1,"isfriend":0,"isfamily":0},{"id":"51908985673","owner":"189946003@N07","secret":"2564692e4f","server":"65535","farm":66,"title":"Card 6","ispublic":1,"isfriend":0,"isfamily":0},{"id":"51907906012","owner":"148179219@N03","secret":"5eb5800052","server":"65535","farm":66,"title":"poedie 3 (24)","ispublic":1,"isfriend":0,"isfamily":0},{"id":"51907886312","owner":"187704955@N06","secret":"cf27ec5681","server":"65535","farm":66,"title":"77. Choke me","ispublic":1,"isfriend":0,"isfamily":0},{"id":"51908709031","owner":"52905413@N00","secret":"9b1aa72afc","server":"65535","farm":66,"title":"Hannah, the kitten we've been looking after once a week at the shelter, got adopted!","ispublic":1,"isfriend":0,"isfamily":0},{"id":"51908544256","owner":"195088032@N03","secret":"5d4aaf29ac","server":"65535","farm":66,"title":"It looks like it was ultimately O\u2019Bama who was behind the entire shirt","ispublic":1,"isfriend":0,"isfamily":0},{"id":"51907458027","owner":"56783052@N06","secret":"b77f131778","server":"65535","farm":66,"title":"Girl Doll With Kitten And Mouse","ispublic":1,"isfriend":0,"isfamily":0},{"id":"51908425691","owner":"56783052@N06","secret":"3e6253d309","server":"65535","farm":66,"title":"Girl Doll With Kitten And Mouse","ispublic":1,"isfriend":0,"isfamily":0},{"id":"51909034840","owner":"133873756@N05","secret":"a06277af52","server":"65535","farm":66,"title":"\u266a I'd forgotten how sweet you tasted..","ispublic":1,"isfriend":0,"isfamily":0},{"id":"51908287866","owner":"193406588@N08","secret":"5a4869e134","server":"65535","farm":66,"title":"Chickadee in flight. Photo by Mary Byzewski","ispublic":1,"isfriend":0,"isfamily":0},{"id":"51908557214","owner":"22974618@N00","secret":"9834ef35c9","server":"65535","farm":66,"title":"Kittens","ispublic":1,"isfriend":0,"isfamily":0},{"id":"51908649755","owner":"159189159@N02","secret":"19c3c3c847","server":"65535","farm":66,"title":"Shakespeare - a friend's cat <3","ispublic":1,"isfriend":0,"isfamily":0},{"id":"51908304289","owner":"7267297@N05","secret":"9eda34d355","server":"65535","farm":66,"title":"I Do Hope We Understand Who is in Charge Here!","ispublic":1,"isfriend":0,"isfamily":0},{"id":"51908544110","owner":"195172196@N08","secret":"b482ce823a","server":"65535","farm":66,"title":"Adorable Cute Blue Eyed Kitten 4K Ultra HD Mobile Wallpaper","ispublic":1,"isfriend":0,"isfamily":0},{"id":"51906947412","owner":"195172196@N08","secret":"9e3b614b8a","server":"65535","farm":66,"title":"Awesome Cat Wallpaper","ispublic":1,"isfriend":0,"isfamily":0},{"id":"51907911081","owner":"195172196@N08","secret":"bb789327eb","server":"65535","farm":66,"title":"Cute Kitten Blue Eyes Flower 4K Ultra HD Mobile Wallpaper","ispublic":1,"isfriend":0,"isfamily":0},{"id":"51908004538","owner":"195172196@N08","secret":"f6377eef5e","server":"65535","farm":66,"title":"cute in Meow","ispublic":1,"isfriend":0,"isfamily":0},{"id":"51908002263","owner":"195172196@N08","secret":"fd6640d0ea","server":"65535","farm":66,"title":"White kitten wallpaper","ispublic":1,"isfriend":0,"isfamily":0},{"id":"51906492642","owner":"190540556@N05","secret":"f74381be13","server":"65535","farm":66,"title":"Do not disturb","ispublic":1,"isfriend":0,"isfamily":0},{"id":"51908080215","owner":"18446961@N00","secret":"706290c5bc","server":"65535","farm":66,"title":"Meet BUSTER today at our adoption event! His stitches are finally out and he's ready to find a home! Also joining him will be Fernando Papi and Squall, as well as cats and kittens from @northbrooklyncats and @whiskers_agogo. 1 to 4 at 181 Irving Ave, @bus","ispublic":1,"isfriend":0,"isfamily":0},{"id":"51905834622","owner":"89024276@N03","secret":"a1b09700f6","server":"65535","farm":66,"title":"Coco und Cleo","ispublic":1,"isfriend":0,"isfamily":0},{"id":"51906895493","owner":"89024276@N03","secret":"6e6c4e3f89","server":"65535","farm":66,"title":"Coco und Cleo","ispublic":1,"isfriend":0,"isfamily":0},{"id":"51907436760","owner":"89024276@N03","secret":"eaf61d41d5","server":"65535","farm":66,"title":"Coco und Cleo","ispublic":1,"isfriend":0,"isfamily":0},{"id":"51905834427","owner":"89024276@N03","secret":"8153450848","server":"65535","farm":66,"title":"Coco und Cleo","ispublic":1,"isfriend":0,"isfamily":0},{"id":"51907436685","owner":"89024276@N03","secret":"b9562d1874","server":"65535","farm":66,"title":"Coco und Cleo","ispublic":1,"isfriend":0,"isfamily":0}]},"stat":"ok"}
